Name,Age,Sex,Division,Equipment,Event,BodyweightKg,WeightClassKg,Squat1Kg,Squat2Kg,Squat3Kg,Best3SquatKg,Bench1Kg,Bench2Kg,Bench3Kg,Bench4Kg,Best3BenchKg,Deadlift1Kg,Deadlift2Kg,Deadlift3Kg,Deadlift4Kg,Best3DeadliftKg,TotalKg,Place
Taryn Madeley,23,F,Open,Multi-ply,SBD,53.6,56,110,120,125,125,55,-75,75,,75,125,135,-140,,135,335,1
Alex Zerba,26,M,Open,Multi-ply,SBD,116.6,125,330,360,-385,360,227.5,242.5,,,242.5,250,282.5,-300.5,,282.5,885,1
Ray Carlisle,27,M,Open,Multi-ply,SBD,78.9,82.5,250,262.5,275,275,140,-150,155,,155,220,235,250,-260,250,680,1
Tim O'Shea,34,M,Open,Multi-ply,SBD,138.9,140,330,-365,-365,330,225,-230,,,225,272.5,285,-300,,285,840,1
Scott Wasson,26,M,Open,Multi-ply,SBD,91.4,100,250,265,280,280,120,140,-160,,140,250,282.5,,,282.5,702.5,1
Liam Thomas,26,M,Open,Multi-ply,SBD,82.1,82.5,230,240,-250,240,135,147.5,152.5,-165,152.5,210,227.5,,,227.5,620,2
Glen Stewart,46,M,Open,Multi-ply,SBD,104.6,110,-290,-330,-350,,,,,,,,,,,,,DQ
