Name,Count
A. Smith,5
Aaron Cooper,2
Adam Bell,2
Adam Jackson,3
Adam Miller,8
Aleksandr Koshelev,2
Alex Campbell,3
Alex Morrison,2
Alex Palmer,2
Allen Fisher,2
Ana Perez,2
Andrew Kelleher,2
Andrew Murphy,3
Andy Huang,2
Angel Gonzalez,2
Anthony Young,3
Ashley Butler,2
B. Miller,2
Benjamin Smith,5
Bill Kelly,2
Bob Evans,2
Brad Lewis,2
Bradley Horne,2
Brandon Byrd,3
Brandon Scott,3
Brandon Simpson,4
Brandon Turner,3
Brian Sullivan,2
Bryden Wilson,2
Cameron Collins,3
Carlos Perez,2
Charles Anderson,2
Chen,3
Chris Bartley,2
Chris Hughes,3
Chris Jones,4
Chris Kennedy,2
Chris Mason,2
Chris Williams,6
Christian Aquino,2
Christian Williams,3
Christopher Young,2
Claire Taylor,2
Colin Wright,2
Collin Grant,2
Cortney Young,2
Courtney Smith,2
Curtis Miller,2
Dan Brown,3
Daniel Brown,4
Daniel Rodriguez,7
Danny Rodriguez,2
Dave Brown,3
Dave Richardson,4
David Anderson,4
David Hughes,3
David Martinez,7
David Osborn,2
David Williams,6
Duy Tran,2
Eduardo Garcia,2
Elias George,2
Emily Hu,2
Enrique Rodriguez,2
Eric Banks,2
Eric Gray,2
Ethan Fudge,2
Frank Luna,2
Frank Sanders,2
G. Baum,2
Gary Miller,4
Hung,2
Helen Hughes,2
J. Smith,12
Jack Taylor,3
James Edwards,2
James Ellis,2
James Grant,3
James Henderson,3
Jason Clarke,3
Jenna Hoffman,2
Jeremy Willis,2
Joanne Barnes,2
Joel Bell,2
Joey Reid,2
John Jones,4
John Smith,6
John Walker,2
Jonathan Clark,3
Jonathan Davis,3
Jonathan Rodgers,3
Josh Banks,2
Josh Edwards,2
Josh King,3
Josh Smith,19
Joshua Black,2
Joshua Yu,2
Julio Sanchez,2
Jussi Mustonen,2
Justin Wilson,4
Kayla Anderson,2
Kim Moser,2
Kim Tran,3
Kimberly Einstein,2
Kyle Alexander,2
Kyle Johnson,5
Kyle Sheridan,2
L. Sample,2
Larry Williams,2
Luke Wilson,3
M. Scott,2
M. Suzuki,2
Martin Nguyen,2
Matt Brown,4
Minh Duc Nguyen,2
Mario Rodriguez,3
Mark Plummer,2
Mason Evans,2
Matt Ward,3
Matthew Cruz,2
Matthew Jordan,2
Michael Dean,3
Michael Samson,2
Mark Daniels,2
Matthew Smith,9
Michael Walker,5
Mike Conley,2
Mike Wolfe,2
Morgan Turner,3
Nathaniel Baker,3
Nick Wright,3
Paulo Santos,2
Peter Nguyen,4
Ramon Figueroa,2
Robert Doll,2
Robert Morrison,2
Ruben Hernandez,2
Ryan King,4
Ryan Miller,5
Ryan Stephenson,2
Ryan Williams,4
Sam Cox,3
Samuel Smith,2
Sara King,2
Sarah Brenner,2
Sarah Skinner,3
Sarah Vance,2
Seth Johnson,3
Seung Lee,2
Sharon Holmes,2
Steve Johnson,5
Susan Johnson,2
T. Dopson,2
Terry Smith,3
Thanh Tam Nguyen,2
Thomas Adams,3
Tim Parker,3
Timothy Brown,3
Tom Bishop,2
Tom Gee,2
Tom Martin,2
Tom Miller,2
Tracy Jones,2
Trevor Walker,2
Tyler Collins,2
William Andrews,3
William Brown,4
William Manning,2
