Name,Age,Sex,Division,Equipment,Tested,Event,BodyweightKg,WeightClassKg,Best3SquatKg,Best3BenchKg,Best3DeadliftKg,TotalKg,Place
Abigail Reed,21,F,JR,Wraps,No,SBD,80.47,82.5,100,47.5,132.5,280,1
Alex Ortiz,45,M,M2R,Wraps,No,SBD,97.52,100,247.5,172.5,245,665,1
Alexis Ortiz,17,F,T2R,Wraps,No,SBD,78.38,82.5,147.5,60,137.5,345,1
Andrea Nolting,27,F,OR,Wraps,No,SBD,92.99,90+,77.5,50,125,252.5,1
Andres La Fleur,30,M,OR,Wraps,No,SBD,79.38,82.5,227.5,182.5,232.5,642.5,1
Andrew Sharpe,16,M,T2R,Wraps,No,SBD,95.53,100,185,102.5,177.5,465,1
Anna Molin,37,F,SRA,Wraps,Yes,SBD,65.41,67.5,80,60,117.5,257.5,1
Betty Jo Schmidt,38,F,SRA,Wraps,Yes,SBD,79.47,82.5,72.5,77.5,107.5,257.5,1
Brendan Morr,23,M,JA,Multi-ply,Yes,SBD,109.13,110,245,132.5,217.5,595,1
Brooke Gabel,24,F,O,Multi-ply,No,SBD,71.3,75,152.5,80,155,387.5,1
Christina Brown,38,F,SRA,Wraps,Yes,SBD,63.5,67.5,80,50,115,245,2
Dana Tomlin,39,F,SRA,Wraps,Yes,SBD,68.95,75,75,52.5,132.5,260,2
Daniel Connolly,35,M,S,Multi-ply,No,SBD,76.02,82.5,187.5,120,215,522.5,1
Deidrick Thomas,26,M,OR,Wraps,No,SBD,99.88,100,182.5,120,222.5,525,3
Derek Jarman,38,M,OR,Wraps,No,SBD,107.14,110,247.5,202.5,295,745,1
Derek Jarman,38,M,SR,Wraps,No,SBD,107.14,110,247.5,202.5,295,745,1
Duane Madere,53,M,M3,Multi-ply,No,SBD,74.93,75,250,155,237.5,642.5,1
Duane Madere,53,M,O,Multi-ply,No,SBD,74.93,75,250,155,237.5,642.5,1
Emily Goudeau,38,F,SR,Wraps,No,SBD,75.48,82.5,72.5,42.5,105,220,1
Eric Lovelace,26,M,OR,Wraps,No,SBD,96.8,100,182.5,135,222.5,540,2
Eric Nayden,30,M,OA,Multi-ply,Yes,SBD,95.07,100,217.5,115,185,517.5,1
Frederick Hannie,30,M,OR,Wraps,No,SBD,98.07,100,285,180,287.5,752.5,1
Jaclyn Torres,25,F,ORA,Wraps,Yes,SBD,65.77,67.5,97.5,40,127.5,265,2
James Strickland,35,M,OR,Wraps,No,SBD,122.83,125,145,260,227.5,632.5,2
James Strickland,35,M,SR,Wraps,No,SBD,122.83,125,145,260,227.5,632.5,1
Jeffrey Allen,33,M,O,Multi-ply,No,SBD,105.32,110,342.5,207.5,277.5,827.5,1
Jonathan Drummond,49,M,M2R,Wraps,No,SBD,123.92,125,,160,300,,DQ
Jordan Lawler,32,M,OA,Wraps,Yes,SBD,107.59,110,,240,227.5,,DQ
Julie Novak,26,F,ORA,Wraps,Yes,SBD,58.06,60,87.5,57.5,120,265,1
Justin Tripp,25,M,OR,Wraps,No,SBD,110.22,125,157.5,160,245,562.5,3
Kaitlyn Mickey,14,F,T1RA,Wraps,Yes,SBD,55.07,56,62.5,37.5,72.5,172.5,1
Kathryn Stemper,25,F,ORA,Wraps,Yes,SBD,65.77,67.5,102.5,65,137.5,305,1
Katy Davis,25,F,ORA,Wraps,Yes,SBD,65.68,67.5,72.5,42.5,120,235,3
Khang Nguyen,29,M,OR,Wraps,No,SBD,82.92,90,185,135,247.5,567.5,1
Kody Smith,37,M,SRA,Wraps,Yes,SBD,80.92,82.5,130,100,182.5,412.5,1
Lee Neef,47,M,M2R,Wraps,No,SBD,112.85,125,217.5,150,217.5,585,1
Marilynn Mathis,62,F,M5R,Wraps,No,SBD,66.04,67.5,110,95,152.5,357.5,1
Marilynn Mathis,62,F,OR,Wraps,No,SBD,66.04,67.5,110,95,152.5,357.5,1
Mark Amoroso,24,M,O,Multi-ply,No,SBD,97.52,100,,185,255,,DQ
Martha King,57,F,M4RA,Wraps,Yes,SBD,54.98,56,60,35,105,200,1
Marvin Mann,55,M,M4R,Wraps,No,SBD,89.9,90,230,160,250,640,1
Matthew Sollay,32,M,OR,Wraps,No,SBD,114.31,125,247.5,182.5,280,710,1
Nick Swisher,17,M,T2,Multi-ply,No,SBD,73.57,75,137.5,90,182.5,410,1
Patsie Lockett,58,F,M4R,Wraps,No,SBD,95.71,90+,80,47.5,110,237.5,1
Philip Baker,52,M,M3,Multi-ply,No,SBD,137.98,140,250,190,280,720,1
Ralph Eckley,64,M,M5R,Wraps,No,SBD,94.62,100,147.5,97.5,165,410,1
Rebecca Klopp,39,F,SRA,Wraps,Yes,SBD,70.4,75,137.5,60,155,352.5,1
Rosalind Hicks-Bowles,46,F,M2A,Multi-ply,Yes,SBD,71.94,75,102.5,60,120,282.5,1
Rosalind Hicks-Bowles,46,F,OA,Wraps,Yes,SBD,71.94,75,102.5,60,120,282.5,1
Ryan Carranza,31,M,O,Multi-ply,No,SBD,89.9,90,,212.5,275,,DQ
Sal Cotto III,27,M,OR,Wraps,No,SBD,131.27,140,272.5,272.5,282.5,827.5,1
Sara Frankovich-Hannie,30,F,OR,Wraps,No,SBD,69.49,75,112.5,55,135,302.5,1
Sarah Abromowitz,27,F,O,Multi-ply,No,SBD,58.88,60,97.5,50,117.5,265,1
Shira More,26,F,ORA,Wraps,Yes,SBD,80.01,82.5,75,45,115,235,1
Yesenia Martinez,30,F,OR,Wraps,No,SBD,54.98,56,82.5,40,115,237.5,1
Dennis Alba,54,M,M3,Multi-ply,No,B,74.57,75,,145,,145,1
Derek Jarman,38,M,OR,Raw,No,B,107.14,110,,202.5,,202.5,1
James Strickland,35,M,OR,Raw,No,B,122.83,125,,260,,260,1
James Strickland,35,M,SR,Raw,No,B,122.83,125,,260,,260,1
Jeff Younker,28,M,OR,Raw,No,B,149.87,140+,,220,,220,1
Marilynn Mathis,62,F,M5R,Raw,No,B,66.04,67.5,,95,,95,1
Marilynn Mathis,62,F,OR,Raw,No,B,66.04,67.5,,95,,95,1
Michael Avila,29,M,O,Multi-ply,No,B,80.74,82.5,,115,,115,1
Jimmy Keating,22,M,JR,Raw,No,D,102.69,110,,,125,125,1
Khang Nguyen,29,M,OR,Raw,No,D,82.92,90,,,247.5,247.5,1
Michael Avila,29,M,O,Multi-ply,No,D,80.74,82.5,,,180,180,1
