Name,Sex,Equipment,BodyweightKg,WeightClassKg,Division,Squat1Kg,Squat2Kg,Squat3Kg,Best3SquatKg,Bench1Kg,Bench2Kg,Bench3Kg,Best3BenchKg,Deadlift1Kg,Deadlift2Kg,Deadlift3Kg,Best3DeadliftKg,TotalKg,Event,AgeClass,Place
Dean Barton,M,Raw,57.9,59,M-O,135,140,142.5,142.5,80,-85,-85,80,165,177.5,187.5,187.5,410,SBD,0-22.5,1
Oli Clarke,M,Raw,64.3,66,M-O,125,140,-150,140,95,105,-110,105,170,195,205,205,450,SBD,0-22.5,1
Ravi Sharma,M,Raw,62.3,66,M-C-Gst,95,-120,120,120,95,107.5,-110,107.5,160,180,190,190,417.5,SBD,0-22.5,G
Ahmed Kadry,M,Raw,73.6,74,M-O,160,-167.5,-167.5,160,115,120,125,125,195,210,-215,210,495,SBD,0-22.5,1
Marcus Morris,M,Raw,70.9,74,M-O,150,160,162.5,162.5,85,90,-95,90,195,205,-215,205,457.5,SBD,0-22.5,2
Ben Wood,M,Raw,73.6,74,M-O,-130,130,-137.5,130,-95,-97.5,100,100,170,180,-195,180,410,SBD,0-22.5,3
John McBride,M,Raw,82.4,83,M-O,217.5,225,-232.5,225,127.5,-140,140,140,210,235,247.5,247.5,612.5,SBD,0-22.5,1
Philip Reid,M,Raw,77.5,83,M-O,185,195,,195,115,-125,125,125,220,230,,230,550,SBD,0-22.5,2
David Clifford,M,Raw,82.1,83,M-O,180,187.5,-193,187.5,117.5,122.5,125,125,225,235.5,-240,235.5,548,SBD,49.5-58.5,3
Adil Khan,M,Raw,75.7,83,M-O,145,160,180,180,142.5,145,-147.5,145,145,190,,190,515,SBD,0-22.5,4
Glynne Jones,M,Raw,82.3,83,M-O,130,140,145,145,115,-120,120,120,180,205,210,210,475,SBD,39.5-48.5,5
Edward Anson,M,Raw,80,83,M-O,-160,160,172.5,172.5,90,-100,102.5,102.5,180,-190,-195,180,455,SBD,0-22.5,6
Marc Dunford,M,Raw,76.1,83,M-O,130,140,145,145,90,100,-102.5,100,155,165,175,175,420,SBD,0-22.5,7
Ian Shaw,M,Raw,89.6,93,M-O,205,-212.5,215,215,-120,120,125,125,255,265,270,270,610,SBD,39.5-48.5,1
Robert Coates,M,Raw,90.6,93,M-O,160,170,-175,170,130,-135,,130,210,220,,220,520,SBD,0-22.5,2
Dion Feather,M,Raw,92,93,M-O,140,-147.5,155,155,90,-95,-95,90,180,195,205,205,450,SBD,0-22.5,3
Timothy Brown #1,M,Raw,83.5,93,M-C-Gst,150,-160,-160,150,105,-112.5,-112.5,105,190,200,-207.5,200,455,SBD,0-22.5,G
Josh Pollard,M,Raw,90.8,93,M-C-Gst,150,165,-175,165,117.5,127.5,-132.5,127.5,190,205,220,220,512.5,SBD,0-17.5,G
Harry Wright,M,Raw,91.9,93,M-C-Gst,172.5,-185,-185,172.5,117.5,-122.5,-122.5,117.5,185,210,-215,210,500,SBD,0-22.5,G
Thomas Richardson,M,Raw,90.1,93,M-O,-120,-120,-120,,50,60,-82.5,60,100,110,130,130,,SBD,0-22.5,DQ
Connor Challinor,M,Raw,92.2,93,M-O,200,210,-220,210,132.5,137.5,-142.5,137.5,,,,,,SBD,0-22.5,DQ
Tom Warburton,M,Raw,101.5,105,M-O,207.5,215,220,220,155,162.5,-170,162.5,260,270,-277.5,270,652.5,SBD,0-22.5,1
Jake Turner,M,Raw,97.6,105,M-O,205,220,232.5,232.5,145,155,157.5,157.5,235,255,-260,255,645,SBD,0-22.5,2
Benjamin Deller-Rust,M,Raw,104.6,105,M-O,190,205,-215,205,137.5,145,150,150,265,280,-290,280,635,SBD,0-22.5,3
Paul Blain,M,Raw,101.2,105,M-O,205,-212.5,-212.5,205,135,-142.5,-142.5,135,235,245,250,250,590,SBD,0-22.5,4
Christian Whittaker,M,Raw,117.6,120,M-O,250,260,270,270,-150,150,160,160,280,-292.5,,280,710,SBD,0-22.5,1
Paul Hendrickse,M,Raw,111.7,120,M-O,170,180,190,190,140,147.5,-150,147.5,207.5,220,235,235,572.5,SBD,0-22.5,2
Neil Ronaldson,M,Raw,116,120,M-O,190,200,,200,145,150,155,155,200,207.5,215,215,570,SBD,0-22.5,3
Jordon Siddall,M,Raw,116.8,120,M-O,160,175,187.5,187.5,130,140,145,145,207.5,222.5,235,235,567.5,SBD,0-22.5,4
Will Freeman Dunn,M,Raw,114.2,120,M-O,180,190,195,195,140,150,160,160,170,180,190,190,545,SBD,0-22.5,5
Andy Foster,M,Raw,127.5,120+,M-O,260,275,285,285,170,180,185,185,275,285,295,295,765,SBD,0-22.5,1
Richard Caine,M,Single-ply,127.1,120+,M-E-Gst,215,230,-245,230,160,170,-180,170,205,220,235,235,635,SBD,0-22.5,G
Frazer Pennington,M,Raw,121.2,120+,M-C-Gst,260,272.5,280,280,145,150,155,155,230,245,260,260,695,SBD,0-22.5,G
David Charnock,M,Raw,121,120+,M-C-Gst,-190,-215,215,215,125,135,140,140,210,240,-260,240,595,SBD,49.5-58.5,G
Munibah Makda,F,Raw,38.3,43,F-C-Gst,42.5,-50,50,50,20,25,,25,72.5,77.5,80,80,155,SBD,0-22.5,G
Tess O'Flaherty,F,Raw,51.8,52,F-O,70,75,80,80,47.5,50,-52.5,50,80,90,100,100,230,SBD,39.5-48.5,1
Georgina Stanway,F,Raw,57,57,F-O,-90,95,100,100,50,-55,55,55,120,130,135,135,290,SBD,0-22.5,1
Leeza Watts,F,Raw,56.4,57,F-O,97.5,-105,-105,97.5,-57.5,57.5,65,65,110,120,-130,120,282.5,SBD,0-22.5,2
Shannon Clifford,F,Raw,62.7,63,F-O,-110,110,-120,110,60,62.5,65,65,145,155,-160.5,155,330,SBD,0-22.5,1
Emma Stott,F,Raw,61.4,63,F-O,85,90,-97.5,90,55,60,62.5,62.5,110,120,127.5,127.5,280,SBD,39.5-48.5,2
Andrea Wilkinson,F,Raw,62.2,63,F-O,87.5,-95,95,95,52.5,57.5,60,60,100,115,125,125,280,SBD,49.5-58.5,3
Naomi Flannery,F,Raw,62.7,63,F-O,95,102.5,107.5,107.5,57.5,60,-65,60,100,110,-117.5,110,277.5,SBD,0-22.5,4
Emma Sullivan,F,Raw,71.8,72,F-O,115,125,-130,125,65,71,73,73,145,155,162,162,360,SBD,0-22.5,1
Sarah Freeman Dunn,F,Raw,66.3,72,F-O,115,122.5,-127.5,122.5,65,70,-72.5,70,140,150,160,160,352.5,SBD,0-22.5,2
Dorota Piotrowska,F,Raw,68.3,72,F-O,97.5,107.5,-112.5,107.5,47.5,52.5,55,55,105,115,122.5,122.5,285,SBD,0-22.5,3
Rachel Bashforth,F,Raw,103.1,84+,F-O,85,95,-105,95,55,-57.5,60,60,100,107.5,115,115,270,SBD,0-22.5,1
Adele Fothersgill,F,Raw,86.4,84+,F-C-Gst,95,105,-112.5,105,52.5,57.5,60,60,100,110,117.5,117.5,282.5,SBD,39.5-48.5,G
